<?xml version="1.0" encoding="UTF-8"?>
<svg width="28px" height="28px" viewBox="0 0 28 28" version="1.1" xmlns="http://www.w3.org/2000/svg" xmlns:xlink="http://www.w3.org/1999/xlink">
    <!-- Generator: Sketch 48.2 (47327) - http://www.bohemiancoding.com/sketch -->
    <title>krepselis icon white cta</title>
    <desc>Created with Sketch.</desc>
    <defs></defs>
    <g id="Product-Extra-large-≥1200px" stroke="none" stroke-width="1" fill="none" fill-rule="evenodd" transform="translate(-1228.000000, -1920.000000)">
        <g id="1-preke" transform="translate(149.000000, 1904.000000)">
            <g id="krepselis-icon-white-cta" transform="translate(1080.000000, 17.000000)">
                <circle id="Oval-2" stroke="#FFFFFF" stroke-width="2" fill="#FFFFFF" cx="13" cy="13" r="13"></circle>
                <polyline id="Stroke-1" stroke="#35E3B6" stroke-width="2" fill="#35E3B6" stroke-linecap="round" stroke-linejoin="round" points="6 8 8.39257143 8 10.3211429 14 17.0354286 14 19 9.35379061 9.07142857 9.41532655"></polyline>
                <path d="M12,17.5 C12,18.3284221 11.3284221,19 10.5,19 C9.67157795,19 9,18.3284221 9,17.5 C9,16.6715779 9.67157795,16 10.5,16 C11.3284221,16 12,16.6715779 12,17.5" id="Fill-3" fill="#35E3B6"></path>
                <path d="M18,17.5 C18,18.3284221 17.3284221,19 16.5,19 C15.6715779,19 15,18.3284221 15,17.5 C15,16.6715779 15.6715779,16 16.5,16 C17.3284221,16 18,16.6715779 18,17.5" id="Fill-5" fill="#35E3B6"></path>
            </g>
        </g>
    </g>
</svg>