<?xml version="1.0" encoding="UTF-8"?>
<svg width="80px" height="80px" viewBox="0 0 80 80" version="1.1" xmlns="http://www.w3.org/2000/svg" xmlns:xlink="http://www.w3.org/1999/xlink">
    <!-- Generator: Sketch 48.2 (47327) - http://www.bohemiancoding.com/sketch -->
    <title>nemokamas pristatymas</title>
    <desc>Created with Sketch.</desc>
    <defs></defs>
    <g id="Product-Extra-large-≥1200px" stroke="none" stroke-width="1" fill="none" fill-rule="evenodd" transform="translate(-172.000000, -236.000000)">
        <g id="Preke-Copy" transform="translate(150.000000, 214.000000)">
            <g id="nemokamas-pristatymas" transform="translate(22.000000, 22.000000)">
                <circle id="Oval-5" fill="#FF7930" cx="40" cy="40" r="40"></circle>
                <g id="icon" transform="translate(29.000000, 16.000000)" fill="#FFFFFF">
                    <path d="M8.35801842,14.0486111 C8.35801842,15.5250926 7.20741316,16.7220185 5.78807105,16.7220185 C4.36812368,16.7220185 3.21751842,15.5250926 3.21751842,14.0486111 C3.21751842,12.5721296 4.36812368,11.3752037 5.78807105,11.3752037 C7.20741316,11.3752037 8.35801842,12.5721296 8.35801842,14.0486111" id="Fill-1"></path>
                    <path d="M11.41605,0 L1.93762895,0 C0.871760526,0 0.000181578947,0.907296296 0.000181578947,2.01544444 L0.000181578947,11.8754444 C0.000181578947,12.9842222 0.871760526,13.8915185 1.93762895,13.8915185 L2.35465526,13.8915185 C2.43455,11.9881481 3.93862895,10.4688519 5.78770789,10.4688519 C7.63739211,10.4688519 9.14147105,11.9881481 9.22136579,13.8915185 L11.41605,13.8915185 C12.4819184,13.8915185 13.3534974,12.9842222 13.3534974,11.8754444 L13.3534974,2.01544444 C13.3534974,0.907296296 12.4819184,0 11.41605,0" id="Fill-3"></path>
                    <path d="M21.3333474,14.0486111 C21.3333474,15.5250926 20.1827421,16.7220185 18.7634,16.7220185 C17.3434526,16.7220185 16.1928474,15.5250926 16.1928474,14.0486111 C16.1928474,12.5721296 17.3434526,11.3752037 18.7634,11.3752037 C20.1827421,11.3752037 21.3333474,12.5721296 21.3333474,14.0486111" id="Fill-5"></path>
                    <path d="M16.6946105,7.88283704 C16.2321895,7.88283704 15.8575316,7.4930963 15.8575316,7.01205926 L15.8575316,5.14268889 C15.8575316,4.66731852 16.2231105,4.2800963 16.6800842,4.27191111 C17.4832684,4.25805926 18.5915053,4.24735556 18.6314526,4.28891111 C18.6950053,4.35439259 21.0022684,7.88283704 21.0022684,7.88283704 L16.6946105,7.88283704 Z M22.5771632,8.02639259 L19.6361895,3.42883704 C19.4455316,3.13039259 19.1235316,2.95157778 18.7791368,2.95157778 L15.1396895,2.95157778 C14.5713474,2.95157778 14.1101368,3.43072593 14.1101368,4.02257778 L14.1101368,12.8203926 C14.1101368,13.4116148 14.5713474,13.8913926 15.1396895,13.8913926 L15.3297421,13.8913926 C15.4096368,11.9880222 16.9137158,10.4693556 18.7634,10.4693556 C20.6124789,10.4693556 22.1165579,11.9880222 22.1964526,13.8913926 L22.6976105,13.8913926 L22.7496632,8.63083704 C22.7514789,8.41613333 22.6915579,8.20520741 22.5771632,8.02639259 Z" id="Fill-7"></path>
                </g>
            </g>
        </g>
    </g>
</svg>