<?xml version="1.0" encoding="UTF-8"?>
<svg width="70px" height="70px" viewBox="0 0 70 70" version="1.1" xmlns="http://www.w3.org/2000/svg" xmlns:xlink="http://www.w3.org/1999/xlink">
    <!-- Generator: Sketch 48.2 (47327) - http://www.bohemiancoding.com/sketch -->
    <title>top</title>
    <desc>Created with Sketch.</desc>
    <defs></defs>
    <g id="Category-Extra-large-≥1200px" stroke="none" stroke-width="1" fill="none" fill-rule="evenodd" transform="translate(-450.000000, -338.000000)">
        <g id="top" transform="translate(450.000000, 338.000000)">
            <circle id="Oval-6" fill="#35E3B6" cx="35" cy="35" r="35"></circle>
            <text id="Best-seller" font-family="Roboto-Bold, Roboto" font-size="14" font-weight="bold" line-spacing="15" fill="#FFFFFF">
                <tspan x="13.7163086" y="31">Best</tspan>
                <tspan x="10.5" y="46">seller</tspan>
            </text>
        </g>
    </g>
</svg>