<?xml version="1.0" encoding="UTF-8"?>
<svg width="171px" height="47px" viewBox="0 0 171 47" version="1.1" xmlns="http://www.w3.org/2000/svg" xmlns:xlink="http://www.w3.org/1999/xlink">
    <!-- Generator: Sketch 48.2 (47327) - http://www.bohemiancoding.com/sketch -->
    <title>trangle bg</title>
    <desc>Created with Sketch.</desc>
    <defs></defs>
    <g id="Product-Extra-large-≥1200px" stroke="none" stroke-width="1" fill="none" fill-rule="evenodd" transform="translate(-470.000000, -935.000000)">
        <g id="Preke-Copy" transform="translate(150.000000, 214.000000)" fill="#FF7930">
            <g id="prekes-informacija" transform="translate(26.000000, 578.000000)">
                <g id="left-block">
                    <rect id="trangle-bg" x="294" y="143" width="171" height="47" rx="5"></rect>
                </g>
            </g>
        </g>
    </g>
</svg>